What’s in a realist’s head?
…
library(topicmodels)

2.2 load in data

df <- read.csv("/Users/ferratan/Documents/fall2022-project1-ferrasuryani98/data/philosophy_data.csv")

# filter to only return works by Aristotle and Locke
realist <- df %>%
            filter(author == 'Aristotle' | author == 'Locke')

realist %>% as_tibble()

## # A tibble: 57,664 × 11
##    title              author school sentence_spacy sentence_str original_public…
##    <chr>              <chr>  <chr>  <chr>          <chr>                   <int>
##  1 Aristotle - Compl… Arist… arist… " When things… " When thin…             -320
##  2 Aristotle - Compl… Arist… arist… "Thus, for ex… "Thus, for …             -320
##  3 Aristotle - Compl… Arist… arist… "These have o… "These have…             -320
##  4 Aristotle - Compl… Arist… arist… "When things … "When thing…             -320
##  5 Aristotle - Compl… Arist… arist… "Thus, for ex… "Thus, for …             -320
##  6 Aristotle - Compl… Arist… arist… "Each of thes… "Each of th…             -320
##  7 Aristotle - Compl… Arist… arist… "one will giv… "one will g…             -320
##  8 Aristotle - Compl… Arist… arist… "When things … "When thing…             -320
##  9 Aristotle - Compl… Arist… arist… "Thus, for ex… "Thus, for …             -320
## 10 Aristotle - Compl… Arist… arist… "Of things th… "Of things …             -320
## # … with 57,654 more rows, and 5 more variables: corpus_edition_date <int>,
## #   sentence_length <int>, sentence_lowered <chr>, tokenized_txt <chr>,
## #   lemmatized_str <chr>

2.3 data cleaning

2.3.1 remove
punctuation

realist$sentence_cleaned <- removePunctuation(realist$sentence_lowered)

realist %>% as_tibble()

## # A tibble: 57,664 × 12
##    title              author school sentence_spacy sentence_str original_public…
##    <chr>              <chr>  <chr>  <chr>          <chr>                   <int>
##  1 Aristotle - Compl… Arist… arist… " When things… " When thin…             -320
##  2 Aristotle - Compl… Arist… arist… "Thus, for ex… "Thus, for …             -320
##  3 Aristotle - Compl… Arist… arist… "These have o… "These have…             -320
##  4 Aristotle - Compl… Arist… arist… "When things … "When thing…             -320
##  5 Aristotle - Compl… Arist… arist… "Thus, for ex… "Thus, for …             -320
##  6 Aristotle - Compl… Arist… arist… "Each of thes… "Each of th…             -320
##  7 Aristotle - Compl… Arist… arist… "one will giv… "one will g…             -320
##  8 Aristotle - Compl… Arist… arist… "When things … "When thing…             -320
##  9 Aristotle - Compl… Arist… arist… "Thus, for ex… "Thus, for …             -320
## 10 Aristotle - Compl… Arist… arist… "Of things th… "Of things …             -320
## # … with 57,654 more rows, and 6 more variables: corpus_edition_date <int>,
## #   sentence_length <int>, sentence_lowered <chr>, tokenized_txt <chr>,
## #   lemmatized_str <chr>, sentence_cleaned <chr>
…
